{
    "Article": true,
    "Tag": true,
    "Comment": true,
    "Category": true,
    "OurService": true,
    "Vietnam": true,
    "Cambodium": true,
    "Lao": true,
    "Myanmar": true,
    "Contact": true
}