{
    "name": "Cambodium",
    "alias": "cambodium",
    "description": "",
    "keywords": [],
    "priority": 0,
    "providers": [
        "Modules\\Cambodium\\Providers\\CambodiumServiceProvider"
    ],
    "aliases": {},
    "files": [],
    "requires": []
}
